<svg width="23" height="23" viewBox="0 0 23 23" fill="none" xmlns="http://www.w3.org/2000/svg">
<path d="M23 11.5C23 11.7542 22.899 11.9979 22.7193 12.1776C22.5396 12.3574 22.2958 12.4583 22.0417 12.4583C21.7875 12.4583 21.5437 12.3574 21.364 12.1776C21.1843 11.9979 21.0833 11.7542 21.0833 11.5C21.0805 8.9592 20.07 6.52326 18.2734 4.72664C16.4767 2.93002 14.0408 1.91946 11.5 1.91667C11.2458 1.91667 11.0021 1.8157 10.8224 1.63598C10.6426 1.45625 10.5417 1.2125 10.5417 0.958333C10.5417 0.704167 10.6426 0.460412 10.8224 0.280689C11.0021 0.100967 11.2458 0 11.5 0C14.549 0.0032977 17.4721 1.21596 19.6281 3.37191C21.784 5.52787 22.9967 8.45102 23 11.5ZM15.3333 12.4583C15.5875 12.4583 15.8313 12.3574 16.011 12.1776C16.1907 11.9979 16.2917 11.7542 16.2917 11.5C16.2917 11.2458 16.1907 11.0021 16.011 10.8224C15.8313 10.6426 15.5875 10.5417 15.3333 10.5417H13.1512C12.9842 10.2546 12.7454 10.0158 12.4583 9.84879V6.70833C12.4583 6.45417 12.3574 6.21041 12.1776 6.03069C11.9979 5.85097 11.7542 5.75 11.5 5.75C11.2458 5.75 11.0021 5.85097 10.8224 6.03069C10.6426 6.21041 10.5417 6.45417 10.5417 6.70833V9.84879C10.2875 9.99514 10.0704 10.198 9.90725 10.4418C9.74409 10.6855 9.63922 10.9635 9.60077 11.2543C9.56231 11.545 9.59131 11.8408 9.68551 12.1185C9.7797 12.3963 9.93657 12.6486 10.144 12.856C10.3514 13.0634 10.6037 13.2203 10.8815 13.3145C11.1592 13.4087 11.455 13.4377 11.7457 13.3992C12.0365 13.3608 12.3145 13.2559 12.5582 13.0927C12.802 12.9296 13.0049 12.7125 13.1512 12.4583H15.3333ZM1.75088 6.50133C1.56133 6.50133 1.37605 6.55754 1.21845 6.66284C1.06086 6.76814 0.938025 6.91782 0.865491 7.09293C0.792957 7.26804 0.773979 7.46073 0.810956 7.64663C0.847934 7.83253 0.939206 8.00329 1.07323 8.13731C1.20726 8.27134 1.37802 8.36261 1.56391 8.39959C1.74981 8.43656 1.9425 8.41758 2.11761 8.34505C2.29273 8.27252 2.4424 8.14968 2.5477 7.99209C2.653 7.83449 2.70921 7.64921 2.70921 7.45967C2.70921 7.2055 2.60824 6.96174 2.42852 6.78202C2.2488 6.6023 2.00504 6.50133 1.75088 6.50133ZM1.91667 11.5C1.91667 11.3105 1.86046 11.1252 1.75516 10.9676C1.64986 10.81 1.50018 10.6871 1.32507 10.6146C1.14996 10.5421 0.957271 10.5231 0.771372 10.5601C0.585474 10.5971 0.414715 10.6883 0.28069 10.8224C0.146664 10.9564 0.055392 11.1271 0.0184145 11.313C-0.018563 11.4989 0.000415228 11.6916 0.0729492 11.8667C0.145483 12.0419 0.268315 12.1915 0.425912 12.2968C0.583509 12.4021 0.768793 12.4583 0.958334 12.4583C1.2125 12.4583 1.45626 12.3574 1.63598 12.1776C1.8157 11.9979 1.91667 11.7542 1.91667 11.5ZM11.5 21.0833C11.3105 21.0833 11.1252 21.1395 10.9676 21.2448C10.81 21.3501 10.6871 21.4998 10.6146 21.6749C10.5421 21.85 10.5231 22.0427 10.5601 22.2286C10.5971 22.4145 10.6883 22.5853 10.8224 22.7193C10.9564 22.8533 11.1271 22.9446 11.313 22.9816C11.4989 23.0186 11.6916 22.9996 11.8667 22.9271C12.0419 22.8545 12.1915 22.7317 12.2968 22.5741C12.4021 22.4165 12.4583 22.2312 12.4583 22.0417C12.4583 21.7875 12.3574 21.5437 12.1776 21.364C11.9979 21.1843 11.7542 21.0833 11.5 21.0833ZM4.04513 3.07337C3.85559 3.07337 3.6703 3.12958 3.5127 3.23488C3.35511 3.34019 3.23228 3.48986 3.15974 3.66497C3.08721 3.84008 3.06823 4.03277 3.10521 4.21867C3.14218 4.40457 3.23346 4.57533 3.36748 4.70935C3.50151 4.84338 3.67227 4.93465 3.85816 4.97163C4.04406 5.00861 4.23675 4.98963 4.41186 4.91709C4.58698 4.84456 4.73665 4.72173 4.84195 4.56413C4.94725 4.40653 5.00346 4.22125 5.00346 4.03171C5.00346 3.77754 4.90249 3.53379 4.72277 3.35406C4.54305 3.17434 4.29929 3.07337 4.04513 3.07337ZM7.45487 0.805958C7.26533 0.805958 7.08005 0.862164 6.92245 0.967467C6.76486 1.07277 6.64202 1.22244 6.56949 1.39755C6.49696 1.57267 6.47798 1.76535 6.51496 1.95125C6.55193 2.13715 6.64321 2.30791 6.77723 2.44194C6.91126 2.57596 7.08202 2.66723 7.26791 2.70421C7.45381 2.74119 7.6465 2.72221 7.82161 2.64968C7.99673 2.57714 8.1464 2.45431 8.2517 2.29671C8.357 2.13912 8.41321 1.95383 8.41321 1.76429C8.41321 1.51013 8.31224 1.26637 8.13252 1.08665C7.9528 0.906925 7.70904 0.805958 7.45487 0.805958ZM1.75088 14.582C1.56133 14.582 1.37605 14.6382 1.21845 14.7435C1.06086 14.8488 0.938025 14.9985 0.865491 15.1736C0.792957 15.3487 0.773979 15.5414 0.810956 15.7273C0.847934 15.9132 0.939206 16.084 1.07323 16.218C1.20726 16.352 1.37802 16.4433 1.56391 16.4803C1.74981 16.5172 1.9425 16.4983 2.11761 16.4257C2.29273 16.3532 2.4424 16.2304 2.5477 16.0728C2.653 15.9152 2.70921 15.7299 2.70921 15.5403C2.70921 15.2862 2.60824 15.0424 2.42852 14.8627C2.2488 14.683 2.00504 14.582 1.75088 14.582ZM4.04513 18.01C3.85559 18.01 3.6703 18.0662 3.5127 18.1715C3.35511 18.2768 3.23228 18.4264 3.15974 18.6016C3.08721 18.7767 3.06823 18.9694 3.10521 19.1553C3.14218 19.3412 3.23346 19.5119 3.36748 19.6459C3.50151 19.78 3.67227 19.8712 3.85816 19.9082C4.04406 19.9452 4.23675 19.9262 4.41186 19.8537C4.58698 19.7811 4.73665 19.6583 4.84195 19.5007C4.94725 19.3431 5.00346 19.1578 5.00346 18.9683C5.00346 18.7141 4.90249 18.4704 4.72277 18.2906C4.54305 18.1109 4.29929 18.01 4.04513 18.01ZM7.45487 20.2774C7.26533 20.2774 7.08005 20.3336 6.92245 20.4389C6.76486 20.5442 6.64202 20.6939 6.56949 20.869C6.49696 21.0441 6.47798 21.2368 6.51496 21.4227C6.55193 21.6086 6.64321 21.7793 6.77723 21.9134C6.91126 22.0474 7.08202 22.1387 7.26791 22.1756C7.45381 22.2126 7.6465 22.1936 7.82161 22.1211C7.99673 22.0486 8.1464 21.9257 8.2517 21.7681C8.357 21.6105 8.41321 21.4252 8.41321 21.2357C8.41321 20.9815 8.31224 20.7378 8.13252 20.5581C7.9528 20.3783 7.70904 20.2774 7.45487 20.2774ZM21.2491 14.582C21.0596 14.582 20.8743 14.6382 20.7167 14.7435C20.5591 14.8488 20.4363 14.9985 20.3637 15.1736C20.2912 15.3487 20.2722 15.5414 20.3092 15.7273C20.3462 15.9132 20.4375 16.084 20.5715 16.218C20.7055 16.352 20.8763 16.4433 21.0622 16.4803C21.2481 16.5172 21.4408 16.4983 21.6159 16.4257C21.791 16.3532 21.9406 16.2304 22.0459 16.0728C22.1513 15.9152 22.2075 15.7299 22.2075 15.5403C22.2075 15.2862 22.1065 15.0424 21.9268 14.8627C21.747 14.683 21.5033 14.582 21.2491 14.582ZM18.9549 18.01C18.7653 18.01 18.5801 18.0662 18.4225 18.1715C18.2649 18.2768 18.142 18.4264 18.0695 18.6016C17.997 18.7767 17.978 18.9694 18.015 19.1553C18.0519 19.3412 18.1432 19.5119 18.2772 19.6459C18.4113 19.78 18.582 19.8712 18.7679 19.9082C18.9538 19.9452 19.1465 19.9262 19.3216 19.8537C19.4967 19.7811 19.6464 19.6583 19.7517 19.5007C19.857 19.3431 19.9132 19.1578 19.9132 18.9683C19.9132 18.7141 19.8122 18.4704 19.6325 18.2906C19.4528 18.1109 19.209 18.01 18.9549 18.01ZM15.5451 20.2774C15.3556 20.2774 15.1703 20.3336 15.0127 20.4389C14.8551 20.5442 14.7323 20.6939 14.6597 20.869C14.5872 21.0441 14.5682 21.2368 14.6052 21.4227C14.6422 21.6086 14.7335 21.7793 14.8675 21.9134C15.0015 22.0474 15.1723 22.1387 15.3582 22.1756C15.5441 22.2126 15.7368 22.1936 15.9119 22.1211C16.087 22.0486 16.2366 21.9257 16.3419 21.7681C16.4473 21.6105 16.5035 21.4252 16.5035 21.2357C16.5035 20.9815 16.4025 20.7378 16.2228 20.5581C16.043 20.3783 15.7993 20.2774 15.5451 20.2774Z" fill="#F3F3F3"/>
</svg>
